\select@language {german}
\contentsline {section}{\numberline {1}Differentialgleichungen}{2}{section.1}
\contentsline {subsection}{\numberline {1.1}Theorie}{2}{subsection.1.1}
\contentsline {subsection}{\numberline {1.2}Aufgaben}{6}{subsection.1.2}
\contentsline {subsection}{\numberline {1.3}Ernstfalltests}{30}{subsection.1.3}
\contentsline {section}{\numberline {2}Funktionentheorie}{72}{section.2}
\contentsline {subsection}{\numberline {2.1}Theorie}{72}{subsection.2.1}
\contentsline {subsection}{\numberline {2.2}Aufgaben}{74}{subsection.2.2}
\contentsline {subsection}{\numberline {2.3}Ernstfalltests}{76}{subsection.2.3}
